Procesamiento avanzado de Bases de Datos en R
…
---
class: inverse, center, middle

##tidyr::complete()

---
## Valores perdidos implícitos

```
## # A tibble: 2,100 x 3
##    country     year  added_value
##    <chr>       <chr> <chr>      
##  1 Sweden      1800  25,7       
##  2 Sweden      1801  21,0       
##  3 Sweden      1802  22,7       
##  4 Sweden      1803  23,0       
##  5 Sweden      1804  22,7       
##  6 Sweden      1805  25,6       
##  7 Sweden      1806  25,1       
##  8 Netherlands 1807  42,5       
##  9 Sweden      1807  24,1       
## 10 Netherlands 1808  36,4       
## # … with 2,090 more rows
```
…
- Datos contienen valores perdidos "implícitos"

- `complete()` valores perdidos "implícitos" en valores perdidos "explícitos"

--

.pull-left[

```r
va_data 
```

```
## # A tibble: 2,100 x 3
##    country     year  added_value
##    <chr>       <chr> <chr>      
##  1 Sweden      1800  25,7       
##  2 Sweden      1801  21,0       
##  3 Sweden      1802  22,7       
##  4 Sweden      1803  23,0       
##  5 Sweden      1804  22,7       
##  6 Sweden      1805  25,6       
##  7 Sweden      1806  25,1       
##  8 Netherlands 1807  42,5       
##  9 Sweden      1807  24,1       
## 10 Netherlands 1808  36,4       
## # … with 2,090 more rows
```
]

--

.pull-right[

```r
*va_data %>% complete(country,year)
```

```
## # A tibble: 3,475 x 3
##    country   year  added_value
##    <chr>     <chr> <chr>      
##  1 Argentina 1800  <NA>       
##  2 Argentina 1801  <NA>       
##  3 Argentina 1802  <NA>       
##  4 Argentina 1803  <NA>       
##  5 Argentina 1804  <NA>       
##  6 Argentina 1805  <NA>       
##  7 Argentina 1806  <NA>       
##  8 Argentina 1807  <NA>       
##  9 Argentina 1808  <NA>       
## 10 Argentina 1809  <NA>       
## # … with 3,465 more rows
```
…
---
## Completar datos incompletos

- También es posible hacer asignar un valor a  valores perdidos "implícitos".

--

.pull-left[

```r
va_data 
```

```
## # A tibble: 2,100 x 3
##    country     year  added_value
##    <chr>       <chr> <chr>      
##  1 Sweden      1800  25,7       
##  2 Sweden      1801  21,0       
##  3 Sweden      1802  22,7       
##  4 Sweden      1803  23,0       
##  5 Sweden      1804  22,7       
##  6 Sweden      1805  25,6       
##  7 Sweden      1806  25,1       
##  8 Netherlands 1807  42,5       
##  9 Sweden      1807  24,1       
## 10 Netherlands 1808  36,4       
## # … with 2,090 more rows
```
]

--

.pull-right[

```r
va_data %>% complete(country,year, 
*           fill = list(added_value = 0))
```

```
## # A tibble: 3,475 x 3
##    country   year  added_value
##    <chr>     <chr> <chr>      
##  1 Argentina 1800  0          
##  2 Argentina 1801  0          
##  3 Argentina 1802  0          
##  4 Argentina 1803  0          
##  5 Argentina 1804  0          
##  6 Argentina 1805  0          
##  7 Argentina 1806  0          
##  8 Argentina 1807  0          
##  9 Argentina 1808  0          
## 10 Argentina 1809  0          
## # … with 3,465 more rows
```
…
- En dichos casos los valores perdidos significan, implícitamente, que no hay cambio en los valores de una variable.

---
## Completa valores perdidos

.pull-left[

```r
va_data %>% complete(country,year) %>% 
  filter(country=="Austria", year > 1913)
```

```
## # A tibble: 25 x 3
##    country year  added_value
##    <chr>   <chr> <chr>      
##  1 Austria 1914  86,6       
##  2 Austria 1915  75,7       
##  3 Austria 1916  68,4       
##  4 Austria 1917  51,9       
##  5 Austria 1918  <NA>       
##  6 Austria 1919  <NA>       
##  7 Austria 1920  66,0       
##  8 Austria 1921  72,2       
##  9 Austria 1922  75,5       
## 10 Austria 1923  80,9       
## # … with 15 more rows
```
]

--

.pull-right[

```r
va_data %>% complete(country,year) %>% 
  filter(country=="Austria", year > 1913) %>%
* fill(added_value, .direction = c("down"))
```

```
## # A tibble: 25 x 3
##    country year  added_value
##    <chr>   <chr> <chr>      
##  1 Austria 1914  86,6       
##  2 Austria 1915  75,7       
##  3 Austria 1916  68,4       
##  4 Austria 1917  51,9       
##  5 Austria 1918  51,9       
##  6 Austria 1919  51,9       
##  7 Austria 1920  66,0       
##  8 Austria 1921  72,2       
##  9 Austria 1922  75,5       
## 10 Austria 1923  80,9       
## # … with 15 more rows
```
]

---
## Completa valores perdidos

.pull-left[

```r
va_data %>% complete(country,year) %>% 
  filter(country=="Austria", year > 1913)
```

```
## # A tibble: 25 x 3
##    country year  added_value
##    <chr>   <chr> <chr>      
##  1 Austria 1914  86,6       
##  2 Austria 1915  75,7       
##  3 Austria 1916  68,4       
##  4 Austria 1917  51,9       
##  5 Austria 1918  <NA>       
##  6 Austria 1919  <NA>       
##  7 Austria 1920  66,0       
##  8 Austria 1921  72,2       
##  9 Austria 1922  75,5       
## 10 Austria 1923  80,9       
## # … with 15 more rows
```
]

--

.pull-right[

```r
va_data %>% complete(country,year) %>% 
  filter(country=="Austria", year > 1913) %>%
* fill(added_value, .direction = c("up"))
```

```
## # A tibble: 25 x 3
##    country year  added_value
##    <chr>   <chr> <chr>      
##  1 Austria 1914  86,6       
##  2 Austria 1915  75,7       
##  3 Austria 1916  68,4       
##  4 Austria 1917  51,9       
##  5 Austria 1918  66,0       
##  6 Austria 1919  66,0       
##  7 Austria 1920  66,0       
##  8 Austria 1921  72,2       
##  9 Austria 1922  75,5       
## 10 Austria 1923  80,9       
## # … with 15 more rows
```
…
##tidyr::drop_na()

---
## Remover valores perdidos controladamente

--
.pull-left[

```r
dummy_data
```

```
## # A tibble: 25 x 4
##    country year  added_value     y
##    <chr>   <chr> <chr>       <int>
##  1 Austria 1914  86,6           NA
##  2 Austria 1915  75,7           NA
##  3 Austria 1916  68,4           16
##  4 Austria 1917  51,9           12
##  5 Austria 1918  <NA>           19
##  6 Austria 1919  <NA>           24
##  7 Austria 1920  66,0            5
##  8 Austria 1921  72,2            2
##  9 Austria 1922  75,5           13
## 10 Austria 1923  80,9           17
## # … with 15 more rows
```
]

.pull-left[
Remueve filas con valores perdidos en "cualquier" variable de la base de datos

```r
*dummy_data %>% drop_na()
```

```
## # A tibble: 21 x 4
##    country year  added_value     y
##    <chr>   <chr> <chr>       <int>
##  1 Austria 1916  68,4           16
##  2 Austria 1917  51,9           12
##  3 Austria 1920  66,0            5
##  4 Austria 1921  72,2            2
##  5 Austria 1922  75,5           13
##  6 Austria 1923  80,9           17
##  7 Austria 1924  83,9           10
##  8 Austria 1925  96,5            4
##  9 Austria 1926  93,7           11
## 10 Austria 1927  101,1          15
## # … with 11 more rows
```
…
##tidyr::drop_na()

---
## Remover valores perdidos controladamente

.pull-left[

```r
dummy_data
```

```
## # A tibble: 25 x 4
##    country year  added_value     y
##    <chr>   <chr> <chr>       <int>
##  1 Austria 1914  86,6           NA
##  2 Austria 1915  75,7           NA
##  3 Austria 1916  68,4           16
##  4 Austria 1917  51,9           12
##  5 Austria 1918  <NA>           19
##  6 Austria 1919  <NA>           24
##  7 Austria 1920  66,0            5
##  8 Austria 1921  72,2            2
##  9 Austria 1922  75,5           13
## 10 Austria 1923  80,9           17
## # … with 15 more rows
```
]

--

.pull-left[
Remueve filas con valores perdidos una variable específica

```r
*dummy_data %>% drop_na(added_value)
```

```
## # A tibble: 23 x 4
##    country year  added_value     y
##    <chr>   <chr> <chr>       <int>
##  1 Austria 1914  86,6           NA
##  2 Austria 1915  75,7           NA
##  3 Austria 1916  68,4           16
##  4 Austria 1917  51,9           12
##  5 Austria 1920  66,0            5
##  6 Austria 1921  72,2            2
##  7 Austria 1922  75,5           13
##  8 Austria 1923  80,9           17
##  9 Austria 1924  83,9           10
## 10 Austria 1925  96,5            4
## # … with 13 more rows
```
]

---
## Remover valores perdidos controladamente

.pull-left[

```r
dummy_data
```

```
## # A tibble: 25 x 4
##    country year  added_value     y
##    <chr>   <chr> <chr>       <int>
##  1 Austria 1914  86,6           NA
##  2 Austria 1915  75,7           NA
##  3 Austria 1916  68,4           16
##  4 Austria 1917  51,9           12
##  5 Austria 1918  <NA>           19
##  6 Austria 1919  <NA>           24
##  7 Austria 1920  66,0            5
##  8 Austria 1921  72,2            2
##  9 Austria 1922  75,5           13
## 10 Austria 1923  80,9           17
## # … with 15 more rows
```
]

--

.pull-left[
Remueve filas con valores perdidos en cualquier varible dentro de una selección de columnas (`starts_with()`, `ends_with()`, etc)

```r
*dummy_data %>% drop_na(ends_with("y"))
```

```
## # A tibble: 23 x 4
##    country year  added_value     y
##    <chr>   <chr> <chr>       <int>
##  1 Austria 1916  68,4           16
##  2 Austria 1917  51,9           12
##  3 Austria 1918  <NA>           19
##  4 Austria 1919  <NA>           24
##  5 Austria 1920  66,0            5
##  6 Austria 1921  72,2            2
##  7 Austria 1922  75,5           13
##  8 Austria 1923  80,9           17
##  9 Austria 1924  83,9           10
## 10 Austria 1925  96,5            4
## # … with 13 more rows
```
…
##tidyr::replace_na()

---
## Reemplazar valores perdidos controladamente

.pull-left[

```r
dummy_data
```

```
## # A tibble: 25 x 4
##    country year  added_value     y
##    <chr>   <chr> <chr>       <int>
##  1 Austria 1914  86,6           NA
##  2 Austria 1915  75,7           NA
##  3 Austria 1916  68,4           16
##  4 Austria 1917  51,9           12
##  5 Austria 1918  <NA>           19
##  6 Austria 1919  <NA>           24
##  7 Austria 1920  66,0            5
##  8 Austria 1921  72,2            2
##  9 Austria 1922  75,5           13
## 10 Austria 1923  80,9           17
## # … with 15 more rows
```
…
--

.pull-left[
Reemplazar valores perdidos con valores especificados para diferentes variables

```r
dummy_data %>% 
* replace_na(list(country = "Hola",
*                 added_value = 0,
*                 y = 999))
```

```
## # A tibble: 25 x 4
##    country year  added_value     y
##    <chr>   <chr> <chr>       <dbl>
##  1 Austria 1914  86,6          999
##  2 Austria 1915  75,7          999
##  3 Austria 1916  68,4           16
##  4 Austria 1917  51,9           12
##  5 Austria 1918  0              19
##  6 Austria 1919  0              24
##  7 Austria 1920  66,0            5
##  8 Austria 1921  72,2            2
##  9 Austria 1922  75,5           13
## 10 Austria 1923  80,9           17
## # … with 15 more rows
```
…
