Procesamiento avanzado de Bases de Datos en R
…
Realicemos 1000 experimentos aleatorios ...

.pull-left[

```r
set.seed(8786421)
x <- rbinom(n=1000, size=1, p=0.6)
y <- rbinom(n=1000, size=1, p=0.6)

sim <- tibble(x=x,y=y); sim
```

```
## # A tibble: 1,000 x 2
##        x     y
##    <int> <int>
##  1     1     1
##  2     0     1
##  3     0     0
##  4     0     0
##  5     1     1
##  6     1     1
##  7     0     0
##  8     0     1
##  9     0     1
## 10     1     1
## # … with 990 more rows
```
…
