Procesamiento avanzado de Bases de Datos en R
…
---
##Gramática visual

<br>
Adivina los datos detrás del siguiente gráfico ...

.pull-left[

```r
data_ineq
```

```
## # A tibble: 648 x 4
## # Groups:   comuna [324]
##    comuna  sexo gini_ytot gini_yaut
##     <dbl> <dbl>     <dbl>     <dbl>
##  1   1101     1     0.447     0.424
##  2   1101     2     0.470     0.420
##  3   1107     1     0.432     0.336
##  4   1107     2     0.490     0.373
##  5   1401     1     0.547     0.424
##  6   1401     2     0.655     0.580
##  7   1402     1     0.220     0.214
##  8   1402     2     0       NaN    
##  9   1404     1     0.499     0.499
## 10   1404     2     0.387     0.376
## # … with 638 more rows
```
…
<br>
Adivina los datos detrás del siguiente gráfico ...

.pull-left[

```r
data_ineq
```
]

--
.pull-right[

```
## # A tibble: 648 x 4
## # Groups:   comuna [324]
##    comuna  sexo gini_ytot gini_yaut
##     <dbl> <dbl>     <dbl>     <dbl>
##  1   1101     1     0.447     0.424
##  2   1101     2     0.470     0.420
##  3   1107     1     0.432     0.336
##  4   1107     2     0.490     0.373
##  5   1401     1     0.547     0.424
##  6   1401     2     0.655     0.580
##  7   1402     1     0.220     0.214
##  8   1402     2     0       NaN    
##  9   1404     1     0.499     0.499
## 10   1404     2     0.387     0.376
## # … with 638 more rows
```
…
